initial exploration
…
data_split <- initial_split(train %>%
                              select(-keyword), prop = 0.7)

data_split %>%  
    training()

## # A tibble: 5,330 x 11
##       id location text  target breaking contains_link capital_count number_count
##    <dbl> <chr>    <chr>  <dbl>    <int>         <dbl>         <int>        <int>
##  1     1 <NA>     Our       1        0             0            10            0
##  2     4 <NA>     Fore      1        0             0             5            0
##  3     5 <NA>     All       1        0             0             2            0
##  4     6 <NA>     13,0      1        0             0             1            5
##  5     7 <NA>     Just      1        0             0             3            0
##  6     8 <NA>     #Roc      1        0             0             9            2
##  7    10 <NA>     #flo      1        0             0             4            0
##  8    14 <NA>     Ther      1        0             0             1            0
##  9    15 <NA>     I'm       1        0             0             1            0
## 10    16 <NA>     Thre      1        0             0             1            0
## #  with 5,320 more rows, and 3 more variables: hashtag_count <int>,
## #   word_count <int>, char_count <int>

data_split %>%
    testing()

## # A tibble: 2,283 x 11
##       id location text  target breaking contains_link capital_count number_count
##    <dbl> <chr>    <chr>  <dbl>    <int>         <dbl>         <int>        <int>
##  1    13 <NA>     "I'm      1        0             0             2            0
##  2    20 <NA>     "Dam      1        1             0             9            2
##  3    23 <NA>     "Wha      0        0             0             1            0
##  4    25 <NA>     "Sum      0        0             0             1            0
##  5    33 <NA>     "Lov      0        0             0             1            0
##  6    34 <NA>     "Wha      0        0             0             1            0
##  7    40 <NA>     "Coo      0        0             0             1            0
##  8    48 Birming "@bb      1        0             1            10            1
##  9    55 World W "INE      1        0             1            10            1
## 10    56 <NA>     "Bar      1        0             1            29            2
## #  with 2,273 more rows, and 3 more variables: hashtag_count <int>,
## #   word_count <int>, char_count <int>
…
